<?xml version="1.0" encoding="UTF-8" standalone="no"?>
<!-- Creator: CorelDRAW -->

<svg
   xml:space="preserve"
   width="2048px"
   height="2048px"
   style="shape-rendering:geometricPrecision; text-rendering:geometricPrecision; image-rendering:optimizeQuality; fill-rule:evenodd; clip-rule:evenodd"
   viewBox="0 0 2048 2048"
   version="1.1"
   id="svg24"
   sodipodi:docname="logo.svg"
   inkscape:version="1.2 (dc2aedaf03, 2022-05-15)"
   inkscape:export-filename="apple-touch-icon.png"
   inkscape:export-xdpi="96"
   inkscape:export-ydpi="96"
   xmlns:inkscape="http://www.inkscape.org/namespaces/inkscape"
   xmlns:sodipodi="http://sodipodi.sourceforge.net/DTD/sodipodi-0.dtd"
   xmlns="http://www.w3.org/2000/svg"
   xmlns:svg="http://www.w3.org/2000/svg"><sodipodi:namedview
   id="namedview26"
   pagecolor="#505050"
   bordercolor="#eeeeee"
   borderopacity="1"
   inkscape:showpageshadow="0"
   inkscape:pageopacity="0"
   inkscape:pagecheckerboard="0"
   inkscape:deskcolor="#505050"
   showgrid="false"
   inkscape:zoom="0.061775508"
   inkscape:cx="1238.3548"
   inkscape:cy="1311.1993"
   inkscape:window-width="1362"
   inkscape:window-height="746"
   inkscape:window-x="0"
   inkscape:window-y="0"
   inkscape:window-maximized="1"
   inkscape:current-layer="Layer_x0020_1" />
 <defs
   id="defs4">
  <style
   type="text/css"
   id="style2">
   <![CDATA[
    .fil2 {fill:none}
    .fil0 {fill:#212121;fill-rule:nonzero}
    .fil1 {fill:#66BB6A;fill-rule:nonzero}
   ]]>
  </style>
 </defs>
 <g
   id="Layer_x0020_1"
   inkscape:label="Layer 1">
  <metadata
   id="CorelCorpID_0Corel-Layer" />
  <path
   class="fil0"
   d="M1727.6 817.922l-140.952 -147.033 22.9996 -22.1256 -23.1 22.1445c-12.2291,-12.7571 -11.8016,-33.0154 0.955513,-45.2445 2.29252,-2.19803 4.82953,-3.98504 7.51654,-5.36693l43.8768 -27.991c-1.35827,-10.3382 -1.75512,-13.624 -1.78583,-13.6205 -5.9067,0.79252 -15.8162,4.96181 -27.3685,9.82205 -40.3217,16.9606 -95.4898,40.1681 -171.134,14.0622 -2.25118,1.2685 -4.17402,2.88307 -5.69528,4.77166 -1.00984,1.25315 -1.86614,2.65276 -2.55473,4.17874l27.5481 30.5091 0.0354331 -0.0318898c7.84725,8.69056 10.0394,20.5063 6.81142,30.9366l-4.39016 19.4067 -8.84764 -1.99016 -0.034252 0.0212599 8.96812 2.02914c-3.27166,14.4638 -15.8646,24.4028 -30.0154,24.9236 -167.369,17.9634 -308.53,28.9996 -450.407,34.3937 -139.929,5.31851 -280.102,5.07993 -446.587,0.531496 -29.3351,12.8032 -45.3945,23.8973 -54.2599,36.6225 -9.23859,13.2626 -12.8469,32.2855 -16.8992,59.1367 -5.69056,37.7138 2.85827,69.5292 12.7713,106.417 15.7748,58.7103 34.5508,128.616 15.7217,252.203l17.6445 245.232 0.046063 -0.00354331c0.0437008,0.604725 0.068504,1.20827 0.0779528,1.80709 1.17402,10.5201 7.92993,14.576 16.3949,15.4169 18.5433,1.84252 43.8024,-4.6252 63.4217,-10.5579l-0.00236221 -0.00826772c2.92677,-0.884646 5.88189,-1.3311 8.79331,-1.3748l91.989 -6.66969 -0.00354331 -0.046063c0.572835,-0.0413386 1.14331,-0.0661418 1.71024,-0.0779528 5.32914,-0.500788 9.45709,-0.79252 13.6276,-1.08189 3.04488,-0.212599 6.06378,-0.354331 8.92796,-0.457087 -1.15394,-0.466536 -2.24173,-1.13504 -3.22559,-2.05394l-0.0531496 0.056693c-4.55079,-4.27441 -7.56969,-9.56694 -9.04135,-15.1937 -7.75867,-23.2642 -19.7008,-47.028 -31.6429,-70.7906 -13.526,-26.9162 -27.0555,-53.8347 -35.9681,-81.2859l30.3756 -9.8752 -30.4359 9.88229c-3.09095,-9.52205 -1.47756,-19.4421 3.55866,-27.2469 6.90591,-12.7748 15.2291,-22.2012 24.4595,-28.8284 16.8071,-12.0673 35.1083,-14.6705 53.0741,-10.9323 14.9303,3.1063 29.1449,10.8473 41.3209,20.8902 1.65591,1.36654 3.28229,2.78268 4.87441,4.2437 9.79253,-10.9547 19.7492,-16.4492 33.6733,-16.4575 9.06733,-0.00472441 16.4374,2.29843 23.1366,6.913 7.89804,-19.311 16.598,-29.3953 54.013,-58.1622l19.5 25.2496 -19.5047 -25.3689c5.71418,-4.3937 12.4394,-6.5563 19.1315,-6.62953 232.433,-22.1114 279.999,-7.70788 286.483,60.0201 1.41851,14.8228 -0.271654,29.9516 -2.27835,47.8973 -4.62166,41.3386 -11.2347,100.573 24.6484,179.537l60.3792 -0.431103 -0.0011811 -0.125197c0.83504,-0.00590552 1.66299,0.0200788 2.48268,0.0767717 14.7354,-0.520867 63.7772,-5.44607 96.3261,-13.3713l-69.6296 -228.692 -0.124016 0.0377953c-4.3063,-14.1437 1.66299,-28.9689 13.6288,-36.45 69.9083,-52.2095 92.2513,-95.3883 112.996,-135.494 31.1362,-60.1961 59.2453,-114.534 195.163,-177.275l-0.0271654 -0.0590552c3.8315,-1.76929 7.83308,-2.71418 11.8051,-2.9126l98.3894 -11.2063c2.89488,-4.52008 5.0693,-9.31772 6.24686,-14.1602 1.03228,-4.24489 1.2685,-8.55355 0.464174,-12.6886zm-68.0327 -163.204l117.487 122.556c3.46772,3.10276 6.31063,7.01339 8.20867,11.5996l-29.5677 12.2374 29.5004 -12.1252c7.80001,18.8492 8.40237,38.2831 3.94134,56.6245 -4.46693,18.3603 -14.0469,35.4366 -26.3764,49.3134 -5.09882,6.40867 -12.6413,10.8744 -21.4205,11.8736l-3.62126 -31.7941 3.49961 31.7504 -108.352 12.3413c-112.054,52.6276 -135.088,97.1398 -160.558,146.38 -22.3961,43.2981 -46.3996,89.693 -115.838,145.22l67.6312 222.127c1.75748,2.83701 3.09213,5.82638 4.02284,8.95867 6.14646,20.6658 -2.80394,35.5607 -22.2803,45.9272 -0.458268,0.262205 -0.924804,0.51378 -1.40079,0.755906l-14.498 -28.5272 14.3752 28.5c-7.80001,3.96378 -18.4063,7.39961 -30.4512,10.3429 -36.0425,8.80512 -91.5225,14.3457 -110.022,15.1193 -1.15158,0.134646 -2.32323,0.209055 -3.51024,0.217323l-0.0011811 -0.125197 -0.102756 0 0 0.0011811 -77.5477 0.555119c-12.6543,1.23543 -25.3666,-5.18741 -31.5544,-17.1732l28.4339 -14.6811 -28.3748 14.6256c-54.176,-104.921 -45.6567,-181.129 -39.8386,-233.182 1.64173,-14.6917 3.02717,-27.078 2.27835,-34.8981 -1.70315,-17.7969 -36.6638,-19.6087 -210.336,-3.15473 -24.4583,19.2626 -26.0563,23.6894 -31.461,38.7118 -3.38859,9.41812 -7.75394,21.5492 -15.4465,38.6256 -2.43425,6.86812 -7.21064,12.9473 -13.9902,16.9158 -15.2516,8.92796 -34.8544,3.80079 -43.7823,-11.4508l0.105118 -0.0614174c-9.30355,-15.9236 4.79646,-23.8618 -4.34764,-23.8571 -0.54567,0 -1.00748,0.0307087 -1.39725,0.090945 3.64488,15.1134 -4.19055,31.0335 -19.024,37.0914 -16.3606,6.6815 -35.0422,-1.16693 -41.7237,-17.5276l29.6256 -12.098 -29.6256 12c-2.96929,-7.27087 -9.19253,-15.4843 -16.9028,-21.8445 -4.71969,-3.89292 -9.56812,-6.75591 -13.8201,-7.64056 -0.692127,-0.144095 -1.32047,-0.199606 -1.84134,-0.145276 7.44686,18.9673 17.113,38.2004 26.7768,57.4323 12.2669,24.4075 24.5327,48.8162 33.3603,73.6253 38.1544,38.2807 38.0977,65.2312 18.7536,85.8237 -16.4539,17.5169 -43.9725,19.4362 -69.8292,21.241 -4.43504,0.308268 -8.8004,0.612993 -11.9091,0.874016 -1.00039,0.170079 -2.01851,0.294095 -3.05079,0.368504l-2.31378 -31.917 2.25 31.8756 -90.1111 6.53386c-24.678,7.29331 -56.3776,14.6646 -84.9012,11.8311 -38.8784,-3.86339 -69.7087,-23.1721 -73.8319,-73.9949 -0.0980316,-0.705119 -0.174803,-1.41732 -0.226772,-2.1378l0.0720473 -0.00472441 -0.00236221 -0.0437008 -0.0271654 0.00236221 -17.7437 -246.606c-0.379134,-2.94685 -0.354331,-5.99646 0.131102,-9.08032l0.122835 0.0188977c17.674,-112.381 0.511418,-176.251 -13.8791,-229.811 -11.778,-43.8296 -21.9354,-81.6284 -14.2713,-132.418 5.39764,-35.7591 10.6748,-61.7693 27.6496,-86.1367 16.5142,-23.7059 41.9244,-42.039 86.2843,-60.854 4.54725,-2.26417 9.7004,-3.47835 15.1335,-3.32717l-0.00354331 0.112205c168.083,4.69252 308.988,5.0126 449.681,-0.335433 128.88,-4.89922 257.998,-14.6221 408.263,-30.1736l-12.0898 -13.389c-5.71654,-5.69764 -9.29646,-13.5484 -9.40631,-22.2555l31.9973 -0.403937 -31.8756 0.375591c-0.264567,-20.9894 6.53268,-39.926 18.4984,-54.7784 11.4803,-14.2512 27.5457,-24.554 46.5225,-29.1331 6.78426,-2.12599 14.315,-2.01614 21.4311,0.830316l-11.8843 29.7118 11.8748 -29.6256c57.2103,22.8839 101.753,4.14685 133.884,-9.36851 15.9083,-6.69213 29.5536,-12.4323 43.6205,-14.3221 40.4847,-5.44252 65.3575,11.7177 75.8481,85.8827 2.81457,12.7476 -2.40118,26.4532 -14.0457,33.8811l-17.2099 -26.9788 17.1248 26.8748 -30.7618 19.624zm-933.432 793.782c3.42756,-0.080315 5.64567,-0.185433 5.91733,-0.474804 2.96457,-3.15591 -0.557481,-1.06772 -5.91733,0.474804zm661.629 7.1504l-0.0011811 -0.0011811 -13.715 14.8217 0.00236221 0.00472441 13.7138 -14.8252z"
   id="path7" />
  <path
   class="fil0"
   d="M645.742 1513.69c16.0158,7.38662 34.9878,0.390945 42.3744,-15.6248 7.38662,-16.0158 0.390945,-34.9878 -15.6248,-42.3744 -27.4311,-12.6331 -42.7181,-38.3965 -51.5185,-72.4772 -10.2874,-39.8363 -12.091,-90.8422 -12.7547,-146.239 -0.206693,-17.6043 -14.6469,-31.7067 -32.2512,-31.5 -17.6043,0.206693 -31.7067,14.6469 -31.5,32.2512 0.714567,59.6871 2.76851,115.069 14.7555,161.488 13.4728,52.1729 38.8878,92.5418 86.5194,114.477z"
   id="path9" />
  <path
   class="fil0"
   d="M431.552 906.814c17.5347,-1.72559 30.3508,-17.341 28.6252,-34.8756 -1.72559,-17.5347 -17.341,-30.3508 -34.8756,-28.6252 -53.0292,5.38937 -71.7709,62.6729 -91.78,123.837 -15.0036,45.8622 -31.004,94.7705 -55.5213,102.943 -16.7067,5.52284 -25.7729,23.5441 -20.25,40.2508 5.52284,16.7067 23.5441,25.7729 40.2508,20.25 55.2898,-18.4299 76.441,-83.0729 96.2717,-143.693 13.3323,-40.754 25.8201,-78.9225 37.2792,-80.0871z"
   id="path11" />
  <path
   class="fil0"
   d="M1351.59 1211.84c16.7752,-5.38465 26.0103,-23.3504 20.6256,-40.1256 -5.38465,-16.7752 -23.3504,-26.0103 -40.1256,-20.6256l-106.924 34.5579 9.75001 30.3756 -9.84095 -30.4488c-14.6209,4.72559 -23.5028,18.9815 -21.9992,33.6756 0.204331,16.1882 0.506693,31.8142 1.05945,46.3985 0.609449,16.1457 1.53662,31.9217 2.97874,47.2642 3.71693,39.5386 10.8378,75.1784 24.6638,104.971 15.3225,33.0177 38.2583,58.6926 72.5375,74.4792 16.0158,7.38662 34.9878,0.390945 42.3744,-15.6248 7.38662,-16.0158 0.390945,-34.9878 -15.6248,-42.3744 -19.1622,-8.8252 -32.2547,-23.765 -41.2878,-43.2296 -10.5295,-22.689 -16.1008,-51.4087 -19.1622,-83.9705 -1.29921,-13.8225 -2.15079,-28.4858 -2.72835,-43.7658 -0.307087,-8.12127 -0.536221,-16.2 -0.711024,-24.274l84.4146 -27.2823z"
   id="path13" />
  <path
   class="fil0"
   d="M1203.16 1212.9c-1.72559,17.5347 11.0906,33.15 28.6252,34.8756 17.5347,1.72559 33.15,-11.0906 34.8756,-28.6252l13.0146 -128.017c1.72559,-17.5347 -11.0906,-33.15 -28.6252,-34.8756 -17.5347,-1.72559 -33.15,11.0906 -34.8756,28.6252l-13.0146 128.017z"
   id="path15" />
  <polygon
   class="fil0"
   points="668.639,1292.76 575.919,1270.55 590.669,1208.55 683.389,1230.76 "
   id="polygon17" />
  <path
   class="fil1"
   d="m 869.83106,879.91608 c 25.04887,-12.05255 40.25768,-48.03014 66.63267,-71.9405 7.42932,-6.73509 26.20394,-8.74587 37.29722,-9.73774 28.21095,-2.52239 8.52713,51.18083 79.00775,43.64344 29.5454,-3.15967 31.566,-46.42522 36.3094,-45.50254 8.211,3.00022 2.4694,74.89724 29.3793,104.77972 32.9289,44.13758 27.3855,82.71555 -2.8305,136.58904 -9.5568,17.0393 -7.3648,49.2066 -30.9211,44.1888 -34.8552,5.4371 -17.4376,-4.0481 -43.5772,-28.3033 -6.8423,-6.6334 -11.6255,-0.527 -36.7387,-2.3269 -22.6324,-1.622 -16.50606,-19.243 -53.74955,-29.803 -53.31006,-3.4235 -52.84126,25.9827 -77.15741,34.731 -6.64014,2.3889 -26.17498,8.0548 -32.79366,9.7599 -21.33075,5.495 -15.62991,-21.8952 -19.4361,-44.0709 -3.55961,-20.739 -35.21663,-47.50528 -28.6568,-81.37585 5.17577,-26.72425 45.58183,-50.39349 77.23468,-60.63117 z"
   id="path19"
   sodipodi:nodetypes="csssccsccscssssc"
   style="fill:none;stroke:#26d23c;stroke-width:57.2;stroke-dasharray:none;stroke-opacity:1" />
 </g>
 <rect
   class="fil2"
   width="2048"
   height="2048"
   id="rect22" />
</svg>
